                            ┌─┐┬┬─┐┌┬┐┌─┐    ┌─┐┬┌┬┐                            
                            ├┤ │├┬┘│││└─┐    └─┐││││                            
                            └  ┴┴└─┴ ┴└─┘────└─┘┴┴ ┴                            

                                  Jon Kragskow                                  
                                Nicholas Chilton                                

--------------------------------------------------------------------------------
-----                              Input File                              -----
--------------------------------------------------------------------------------

ab_initio_cfps.dat
cfp_polynomials.dat
vib_energies.dat
180 ! num modes for molecule
2 ! num modes for coupling
4
5
2 ! num vib states
0.05 ! field low
16.05 ! field high
0.1 ! field step
3 ! zcw
no ! single axis
yb ! metal
3 ! ox state
4.2 ! temperature
370.0 ! energy low
550.0 ! energy high
1000 ! resolution
simple ! transition intensities
100 ! scale electronic transition probability
1 ! scale h_sp
1 ! number of ir grid points
.true.  ! skip purely vibrational transitions?
.true.  ! if true, assume oefs are subsumed into equilibrium cfps
.false. ! if true, show only the vibronic levels, without any intensity considerations
.true.  ! shift equilibrium cf energies to values in eq_cf_energies.dat

--------------------------------------------------------------------------------
-----                            Metal Ion Data                            -----
--------------------------------------------------------------------------------

Ion = yb(3)
13 f electrons
S = 1/2
L = 3
J = 7/2
gJ = 1.14286


--------------------------------------------------------------------------------
-----                      Magnetic Field Information                      -----
--------------------------------------------------------------------------------

                          Magnetic Field Strengths (T)                          
                          ‾‾‾‾‾‾‾‾‾‾‾‾‾‾‾‾‾‾‾‾‾‾‾‾‾‾‾‾                          
  0.0500
  0.1500
  0.2500
  0.3500
  0.4500
  0.5500
  0.6500
  0.7500
  0.8500
  0.9500
  1.0500
  1.1500
  1.2500
  1.3500
  1.4500
  1.5500
  1.6500
  1.7500
  1.8500
  1.9500
  2.0500
  2.1500
  2.2500
  2.3500
  2.4500
  2.5500
  2.6500
  2.7500
  2.8500
  2.9500
  3.0500
  3.1500
  3.2500
  3.3500
  3.4500
  3.5500
  3.6500
  3.7500
  3.8500
  3.9500
  4.0500
  4.1500
  4.2500
  4.3500
  4.4500
  4.5500
  4.6500
  4.7500
  4.8500
  4.9500
  5.0500
  5.1500
  5.2500
  5.3500
  5.4500
  5.5500
  5.6500
  5.7500
  5.8500
  5.9500
  6.0500
  6.1500
  6.2500
  6.3500
  6.4500
  6.5500
  6.6500
  6.7500
  6.8500
  6.9500
  7.0500
  7.1500
  7.2500
  7.3500
  7.4500
  7.5500
  7.6500
  7.7500
  7.8500
  7.9500
  8.0500
  8.1500
  8.2500
  8.3500
  8.4500
  8.5500
  8.6500
  8.7500
  8.8500
  8.9500
  9.0500
  9.1500
  9.2500
  9.3500
  9.4500
  9.5500
  9.6500
  9.7500
  9.8500
  9.9500
 10.0500
 10.1500
 10.2500
 10.3500
 10.4500
 10.5500
 10.6500
 10.7500
 10.8500
 10.9500
 11.0500
 11.1500
 11.2500
 11.3500
 11.4500
 11.5500
 11.6500
 11.7500
 11.8500
 11.9500
 12.0500
 12.1500
 12.2500
 12.3500
 12.4500
 12.5500
 12.6500
 12.7500
 12.8500
 12.9500
 13.0500
 13.1500
 13.2500
 13.3500
 13.4500
 13.5500
 13.6500
 13.7500
 13.8500
 13.9500
 14.0500
 14.1500
 14.2500
 14.3500
 14.4500
 14.5500
 14.6500
 14.7500
 14.8500
 14.9500
 15.0500
 15.1500
 15.2500
 15.3500
 15.4500
 15.5500
 15.6500
 15.7500
 15.8500
 15.9500
 16.0500

Each field strength is powder-averaged over 89 positions

IR polarisation averaged over 1 positions for each field position


--------------------------------------------------------------------------------
-----                   Equilibrium electronic structure                   -----
--------------------------------------------------------------------------------

                                  <J_z> Values                                  
                                  ‾‾‾‾‾‾‾‾‾‾‾‾                                  
State  1 <J_z> =      -2.0837825
State  2 <J_z> =       2.0837825
State  3 <J_z> =      -1.3625738
State  4 <J_z> =       1.3625738
State  5 <J_z> =      -1.5000000
State  6 <J_z> =       1.5000000
State  7 <J_z> =      -0.7787913
State  8 <J_z> =       0.7787913

                            z-Magnetic Moment (mu_B)                            
                            ‾‾‾‾‾‾‾‾‾‾‾‾‾‾‾‾‾‾‾‾‾‾‾‾                            
State  1 mu =      -1.1118268
State  2 mu =       1.1118268
State  3 mu =      -0.7270173
State  4 mu =       0.7270174
State  5 mu =      -0.8003427
State  6 mu =       0.8003427
State  7 mu =      -0.4155333
State  8 mu =       0.4155333

                  Equilibrium Crystal Field Eigenvalues (cm^-1)                 
                  ‾‾‾‾‾‾‾‾‾‾‾‾‾‾‾‾‾‾‾‾‾‾‾‾‾‾‾‾‾‾‾‾‾‾‾‾‾‾‾‾‾‾‾‾‾                 
State  1 E =       0.0000000
State  2 E =       0.0000005
State  3 E =     474.0000011
State  4 E =     474.0000016
State  5 E =     745.0000021
State  6 E =     745.0000027
State  7 E =     920.0000032
State  8 E =     920.0000037

                 Equilibrium Crystal Field Vectors (percentages)                
                 ‾‾‾‾‾‾‾‾‾‾‾‾‾‾‾‾‾‾‾‾‾‾‾‾‾‾‾‾‾‾‾‾‾‾‾‾‾‾‾‾‾‾‾‾‾‾‾                
 mJ =      -3.5   -2.5   -1.5   -0.5    0.5    1.5    2.5    3.5
‾‾‾‾‾‾‾‾‾‾‾‾‾‾‾‾‾‾‾‾‾‾‾‾‾‾‾‾‾‾‾‾‾‾‾‾‾‾‾‾‾‾‾‾‾‾‾‾‾‾‾‾‾‾‾‾‾‾‾‾‾‾‾‾
State  1  68.10   0.00   0.00  16.60   0.00   0.00  15.30   0.00
State  2   0.00  15.30   0.00   0.00  16.60   0.00   0.00  68.10
State  3   0.00  81.03   0.00   0.00   0.03   0.00   0.00  18.94
State  4  18.94   0.00   0.00   0.03   0.00   0.00  81.03   0.00
State  5   0.00   0.00 100.00   0.00   0.00   0.00   0.00   0.00
State  6   0.00   0.00   0.00   0.00   0.00 100.00   0.00   0.00
State  7  12.96   0.00   0.00  83.37   0.00   0.00   3.67   0.00
State  8   0.00   3.67   0.00   0.00  83.37   0.00   0.00  12.96

--------------------------------------------------------------------------------
-----                     Equilibrium Vibrational Modes                    -----
--------------------------------------------------------------------------------

                     Equilibrium Phonon Eigenvalues (cm^-1)                     
                     ‾‾‾‾‾‾‾‾‾‾‾‾‾‾‾‾‾‾‾‾‾‾‾‾‾‾‾‾‾‾‾‾‾‾‾‾‾‾                     
State  1 E =       0.0000000
State  2 E =      48.4483000
State  3 E =      48.4485000
State  4 E =      96.8968000

--------------------------------------------------------------------------------
-----                     Zero Field Total Hamiltonian                     -----
--------------------------------------------------------------------------------

Total Hamiltonian contains 32 states

A very small magnetic field has been applied to quantise the states

    Zero Field Eigenvalues of total Hamiltonian without coupling term (cm^-1)   
    ‾‾‾‾‾‾‾‾‾‾‾‾‾‾‾‾‾‾‾‾‾‾‾‾‾‾‾‾‾‾‾‾‾‾‾‾‾‾‾‾‾‾‾‾‾‾‾‾‾‾‾‾‾‾‾‾‾‾‾‾‾‾‾‾‾‾‾‾‾‾‾‾‾   
State     1 E =       0.0000000
State     2 E =       0.0000005
State     3 E =      48.4483000
State     4 E =      48.4483005
State     5 E =      48.4485000
State     6 E =      48.4485005
State     7 E =      96.8968000
State     8 E =      96.8968005
State     9 E =     474.0000011
State    10 E =     474.0000016
State    11 E =     522.4483011
State    12 E =     522.4483016
State    13 E =     522.4485011
State    14 E =     522.4485016
State    15 E =     570.8968011
State    16 E =     570.8968016
State    17 E =     745.0000021
State    18 E =     745.0000027
State    19 E =     793.4483021
State    20 E =     793.4483027
State    21 E =     793.4485021
State    22 E =     793.4485027
State    23 E =     841.8968021
State    24 E =     841.8968027
State    25 E =     920.0000032
State    26 E =     920.0000037
State    27 E =     968.4483032
State    28 E =     968.4483037
State    29 E =     968.4485032
State    30 E =     968.4485037
State    31 E =    1016.8968032
State    32 E =    1016.8968037

     Zero Field Eigenvalues of total Hamiltonian with coupling term (cm^-1)     
     ‾‾‾‾‾‾‾‾‾‾‾‾‾‾‾‾‾‾‾‾‾‾‾‾‾‾‾‾‾‾‾‾‾‾‾‾‾‾‾‾‾‾‾‾‾‾‾‾‾‾‾‾‾‾‾‾‾‾‾‾‾‾‾‾‾‾‾‾‾‾     
State     1 E =       0.0000000
State     2 E =       0.0000005
State     3 E =      48.3286849
State     4 E =      48.3286854
State     5 E =      48.4352422
State     6 E =      48.4352427
State     7 E =      96.7638476
State     8 E =      96.7638481
State     9 E =     473.3126438
State    10 E =     473.3126443
State    11 E =     521.0549900
State    12 E =     521.0549905
State    13 E =     521.5678610
State    14 E =     521.5678615
State    15 E =     569.3103943
State    16 E =     569.3103948
State    17 E =     747.2655256
State    18 E =     747.2655261
State    19 E =     794.6101676
State    20 E =     794.6101677
State    21 E =     795.4731791
State    22 E =     795.4731791
State    23 E =     842.8170291
State    24 E =     842.8170296
State    25 E =     922.4526771
State    26 E =     922.4526776
State    27 E =     970.2774120
State    28 E =     970.2774125
State    29 E =     970.8211790
State    30 E =     970.8211796
State    31 E =    1018.6491842
State    32 E =    1018.6491848

           Zero Field Total Hamiltonian Vectors without coupling term           
                 Percentage contribution of |KD,n_j,...> states                 
                 ‾‾‾‾‾‾‾‾‾‾‾‾‾‾‾‾‾‾‾‾‾‾‾‾‾‾‾‾‾‾‾‾‾‾‾‾‾‾‾‾‾‾‾‾‾‾                 
           Each column is an eigenvector           
KD n1 n2
-1  0  0   100.00   0.00   0.00   0.00   0.00   0.00   0.00   0.00   0.00   0.00   0.00   0.00   0.00   0.00   0.00   0.00   0.00   0.00   0.00   0.00   0.00   0.00   0.00   0.00   0.00   0.00   0.00   0.00   0.00   0.00   0.00   0.00
-1  1  0     0.00   0.00 100.00   0.00   0.00   0.00   0.00   0.00   0.00   0.00   0.00   0.00   0.00   0.00   0.00   0.00   0.00   0.00   0.00   0.00   0.00   0.00   0.00   0.00   0.00   0.00   0.00   0.00   0.00   0.00   0.00   0.00
-1  0  1     0.00   0.00   0.00   0.00 100.00   0.00   0.00   0.00   0.00   0.00   0.00   0.00   0.00   0.00   0.00   0.00   0.00   0.00   0.00   0.00   0.00   0.00   0.00   0.00   0.00   0.00   0.00   0.00   0.00   0.00   0.00   0.00
-1  1  1     0.00   0.00   0.00   0.00   0.00   0.00 100.00   0.00   0.00   0.00   0.00   0.00   0.00   0.00   0.00   0.00   0.00   0.00   0.00   0.00   0.00   0.00   0.00   0.00   0.00   0.00   0.00   0.00   0.00   0.00   0.00   0.00
+1  0  0     0.00 100.00   0.00   0.00   0.00   0.00   0.00   0.00   0.00   0.00   0.00   0.00   0.00   0.00   0.00   0.00   0.00   0.00   0.00   0.00   0.00   0.00   0.00   0.00   0.00   0.00   0.00   0.00   0.00   0.00   0.00   0.00
+1  1  0     0.00   0.00   0.00 100.00   0.00   0.00   0.00   0.00   0.00   0.00   0.00   0.00   0.00   0.00   0.00   0.00   0.00   0.00   0.00   0.00   0.00   0.00   0.00   0.00   0.00   0.00   0.00   0.00   0.00   0.00   0.00   0.00
+1  0  1     0.00   0.00   0.00   0.00   0.00 100.00   0.00   0.00   0.00   0.00   0.00   0.00   0.00   0.00   0.00   0.00   0.00   0.00   0.00   0.00   0.00   0.00   0.00   0.00   0.00   0.00   0.00   0.00   0.00   0.00   0.00   0.00
+1  1  1     0.00   0.00   0.00   0.00   0.00   0.00   0.00 100.00   0.00   0.00   0.00   0.00   0.00   0.00   0.00   0.00   0.00   0.00   0.00   0.00   0.00   0.00   0.00   0.00   0.00   0.00   0.00   0.00   0.00   0.00   0.00   0.00
-2  0  0     0.00   0.00   0.00   0.00   0.00   0.00   0.00   0.00 100.00   0.00   0.00   0.00   0.00   0.00   0.00   0.00   0.00   0.00   0.00   0.00   0.00   0.00   0.00   0.00   0.00   0.00   0.00   0.00   0.00   0.00   0.00   0.00
-2  1  0     0.00   0.00   0.00   0.00   0.00   0.00   0.00   0.00   0.00   0.00 100.00   0.00   0.00   0.00   0.00   0.00   0.00   0.00   0.00   0.00   0.00   0.00   0.00   0.00   0.00   0.00   0.00   0.00   0.00   0.00   0.00   0.00
-2  0  1     0.00   0.00   0.00   0.00   0.00   0.00   0.00   0.00   0.00   0.00   0.00   0.00 100.00   0.00   0.00   0.00   0.00   0.00   0.00   0.00   0.00   0.00   0.00   0.00   0.00   0.00   0.00   0.00   0.00   0.00   0.00   0.00
-2  1  1     0.00   0.00   0.00   0.00   0.00   0.00   0.00   0.00   0.00   0.00   0.00   0.00   0.00   0.00 100.00   0.00   0.00   0.00   0.00   0.00   0.00   0.00   0.00   0.00   0.00   0.00   0.00   0.00   0.00   0.00   0.00   0.00
+2  0  0     0.00   0.00   0.00   0.00   0.00   0.00   0.00   0.00   0.00 100.00   0.00   0.00   0.00   0.00   0.00   0.00   0.00   0.00   0.00   0.00   0.00   0.00   0.00   0.00   0.00   0.00   0.00   0.00   0.00   0.00   0.00   0.00
+2  1  0     0.00   0.00   0.00   0.00   0.00   0.00   0.00   0.00   0.00   0.00   0.00 100.00   0.00   0.00   0.00   0.00   0.00   0.00   0.00   0.00   0.00   0.00   0.00   0.00   0.00   0.00   0.00   0.00   0.00   0.00   0.00   0.00
+2  0  1     0.00   0.00   0.00   0.00   0.00   0.00   0.00   0.00   0.00   0.00   0.00   0.00   0.00 100.00   0.00   0.00   0.00   0.00   0.00   0.00   0.00   0.00   0.00   0.00   0.00   0.00   0.00   0.00   0.00   0.00   0.00   0.00
+2  1  1     0.00   0.00   0.00   0.00   0.00   0.00   0.00   0.00   0.00   0.00   0.00   0.00   0.00   0.00   0.00 100.00   0.00   0.00   0.00   0.00   0.00   0.00   0.00   0.00   0.00   0.00   0.00   0.00   0.00   0.00   0.00   0.00
-3  0  0     0.00   0.00   0.00   0.00   0.00   0.00   0.00   0.00   0.00   0.00   0.00   0.00   0.00   0.00   0.00   0.00 100.00   0.00   0.00   0.00   0.00   0.00   0.00   0.00   0.00   0.00   0.00   0.00   0.00   0.00   0.00   0.00
-3  1  0     0.00   0.00   0.00   0.00   0.00   0.00   0.00   0.00   0.00   0.00   0.00   0.00   0.00   0.00   0.00   0.00   0.00   0.00 100.00   0.00   0.00   0.00   0.00   0.00   0.00   0.00   0.00   0.00   0.00   0.00   0.00   0.00
-3  0  1     0.00   0.00   0.00   0.00   0.00   0.00   0.00   0.00   0.00   0.00   0.00   0.00   0.00   0.00   0.00   0.00   0.00   0.00   0.00   0.00 100.00   0.00   0.00   0.00   0.00   0.00   0.00   0.00   0.00   0.00   0.00   0.00
-3  1  1     0.00   0.00   0.00   0.00   0.00   0.00   0.00   0.00   0.00   0.00   0.00   0.00   0.00   0.00   0.00   0.00   0.00   0.00   0.00   0.00   0.00   0.00 100.00   0.00   0.00   0.00   0.00   0.00   0.00   0.00   0.00   0.00
+3  0  0     0.00   0.00   0.00   0.00   0.00   0.00   0.00   0.00   0.00   0.00   0.00   0.00   0.00   0.00   0.00   0.00   0.00 100.00   0.00   0.00   0.00   0.00   0.00   0.00   0.00   0.00   0.00   0.00   0.00   0.00   0.00   0.00
+3  1  0     0.00   0.00   0.00   0.00   0.00   0.00   0.00   0.00   0.00   0.00   0.00   0.00   0.00   0.00   0.00   0.00   0.00   0.00   0.00 100.00   0.00   0.00   0.00   0.00   0.00   0.00   0.00   0.00   0.00   0.00   0.00   0.00
+3  0  1     0.00   0.00   0.00   0.00   0.00   0.00   0.00   0.00   0.00   0.00   0.00   0.00   0.00   0.00   0.00   0.00   0.00   0.00   0.00   0.00   0.00 100.00   0.00   0.00   0.00   0.00   0.00   0.00   0.00   0.00   0.00   0.00
+3  1  1     0.00   0.00   0.00   0.00   0.00   0.00   0.00   0.00   0.00   0.00   0.00   0.00   0.00   0.00   0.00   0.00   0.00   0.00   0.00   0.00   0.00   0.00   0.00 100.00   0.00   0.00   0.00   0.00   0.00   0.00   0.00   0.00
-4  0  0     0.00   0.00   0.00   0.00   0.00   0.00   0.00   0.00   0.00   0.00   0.00   0.00   0.00   0.00   0.00   0.00   0.00   0.00   0.00   0.00   0.00   0.00   0.00   0.00 100.00   0.00   0.00   0.00   0.00   0.00   0.00   0.00
-4  1  0     0.00   0.00   0.00   0.00   0.00   0.00   0.00   0.00   0.00   0.00   0.00   0.00   0.00   0.00   0.00   0.00   0.00   0.00   0.00   0.00   0.00   0.00   0.00   0.00   0.00   0.00 100.00   0.00   0.00   0.00   0.00   0.00
-4  0  1     0.00   0.00   0.00   0.00   0.00   0.00   0.00   0.00   0.00   0.00   0.00   0.00   0.00   0.00   0.00   0.00   0.00   0.00   0.00   0.00   0.00   0.00   0.00   0.00   0.00   0.00   0.00   0.00 100.00   0.00   0.00   0.00
-4  1  1     0.00   0.00   0.00   0.00   0.00   0.00   0.00   0.00   0.00   0.00   0.00   0.00   0.00   0.00   0.00   0.00   0.00   0.00   0.00   0.00   0.00   0.00   0.00   0.00   0.00   0.00   0.00   0.00   0.00   0.00 100.00   0.00
+4  0  0     0.00   0.00   0.00   0.00   0.00   0.00   0.00   0.00   0.00   0.00   0.00   0.00   0.00   0.00   0.00   0.00   0.00   0.00   0.00   0.00   0.00   0.00   0.00   0.00   0.00 100.00   0.00   0.00   0.00   0.00   0.00   0.00
+4  1  0     0.00   0.00   0.00   0.00   0.00   0.00   0.00   0.00   0.00   0.00   0.00   0.00   0.00   0.00   0.00   0.00   0.00   0.00   0.00   0.00   0.00   0.00   0.00   0.00   0.00   0.00   0.00 100.00   0.00   0.00   0.00   0.00
+4  0  1     0.00   0.00   0.00   0.00   0.00   0.00   0.00   0.00   0.00   0.00   0.00   0.00   0.00   0.00   0.00   0.00   0.00   0.00   0.00   0.00   0.00   0.00   0.00   0.00   0.00   0.00   0.00   0.00   0.00 100.00   0.00   0.00
+4  1  1     0.00   0.00   0.00   0.00   0.00   0.00   0.00   0.00   0.00   0.00   0.00   0.00   0.00   0.00   0.00   0.00   0.00   0.00   0.00   0.00   0.00   0.00   0.00   0.00   0.00   0.00   0.00   0.00   0.00   0.00   0.00 100.00

           Zero Field Total Hamiltonian Vectors with coupling term           
                 Percentage contribution of |KD,n_j,...> states                 
                 ‾‾‾‾‾‾‾‾‾‾‾‾‾‾‾‾‾‾‾‾‾‾‾‾‾‾‾‾‾‾‾‾‾‾‾‾‾‾‾‾‾‾‾‾‾‾                 
           Each column is an eigenvector           
KD n1 n2
-1  0  0    99.89   0.00   0.00   0.00   0.00   0.00   0.00   0.00   0.00   0.00   0.00   0.00   0.10   0.00   0.00   0.00   0.00   0.00   0.00   0.00   0.00   0.01   0.00   0.00   0.00   0.00   0.00   0.00   0.00   0.00   0.00   0.00
-1  1  0     0.00   0.00  49.98   0.00  49.88   0.00   0.00   0.00   0.08   0.00   0.00   0.00   0.00   0.00   0.05   0.00   0.00   0.01   0.00   0.00   0.00   0.00   0.00   0.00   0.00   0.00   0.00   0.00   0.00   0.00   0.00   0.00
-1  0  1     0.00   0.00  49.86   0.00  50.00   0.00   0.00   0.00   0.08   0.00   0.00   0.00   0.00   0.00   0.05   0.00   0.00   0.01   0.00   0.00   0.00   0.00   0.00   0.00   0.00   0.00   0.00   0.00   0.00   0.00   0.00   0.00
-1  1  1     0.00   0.00   0.00   0.00   0.00   0.00  99.83   0.00   0.00   0.00   0.15   0.00   0.00   0.00   0.00   0.00   0.00   0.00   0.00   0.01   0.00   0.00   0.00   0.00   0.00   0.00   0.00   0.00   0.00   0.00   0.00   0.00
+1  0  0     0.00  99.89   0.00   0.00   0.00   0.00   0.00   0.00   0.00   0.00   0.00   0.00   0.00   0.10   0.00   0.00   0.00   0.00   0.00   0.00   0.01   0.00   0.00   0.00   0.00   0.00   0.00   0.00   0.00   0.00   0.00   0.00
+1  1  0     0.00   0.00   0.00  49.98   0.00  49.88   0.00   0.00   0.00   0.08   0.00   0.00   0.00   0.00   0.00   0.05   0.01   0.00   0.00   0.00   0.00   0.00   0.00   0.00   0.00   0.00   0.00   0.00   0.00   0.00   0.00   0.00
+1  0  1     0.00   0.00   0.00  49.86   0.00  50.00   0.00   0.00   0.00   0.08   0.00   0.00   0.00   0.00   0.00   0.05   0.01   0.00   0.00   0.00   0.00   0.00   0.00   0.00   0.00   0.00   0.00   0.00   0.00   0.00   0.00   0.00
+1  1  1     0.00   0.00   0.00   0.00   0.00   0.00   0.00  99.83   0.00   0.00   0.00   0.15   0.00   0.00   0.00   0.00   0.00   0.00   0.01   0.00   0.00   0.00   0.00   0.00   0.00   0.00   0.00   0.00   0.00   0.00   0.00   0.00
-2  0  0     0.00   0.00   0.15   0.00   0.00   0.00   0.00   0.00  99.28   0.00   0.00   0.00   0.00   0.00   0.00   0.00   0.00   0.00   0.00   0.44   0.07   0.00   0.00   0.00   0.00   0.00   0.00   0.00   0.06   0.00   0.00   0.00
-2  1  0     0.05   0.00   0.00   0.00   0.00   0.00   0.08   0.00   0.00   0.00  49.37   0.00  49.65   0.00   0.00   0.00   0.34   0.17   0.00   0.00   0.00   0.00   0.17   0.09   0.05   0.00   0.00   0.00   0.00   0.00   0.03   0.00
-2  0  1     0.05   0.00   0.00   0.00   0.00   0.00   0.08   0.00   0.00   0.00  49.38   0.00  49.64   0.00   0.00   0.00   0.34   0.17   0.00   0.00   0.00   0.00   0.17   0.09   0.05   0.00   0.00   0.00   0.00   0.00   0.03   0.00
-2  1  1     0.00   0.00   0.00   0.00   0.10   0.00   0.00   0.00   0.00   0.00   0.00   0.00   0.00   0.00  98.77   0.00   0.00   0.00   0.15   0.00   0.00   0.89   0.00   0.00   0.00   0.00   0.10   0.00   0.00   0.00   0.00   0.00
+2  0  0     0.00   0.00   0.00   0.15   0.00   0.00   0.00   0.00   0.00  99.28   0.00   0.00   0.00   0.00   0.00   0.00   0.00   0.00   0.44   0.00   0.00   0.07   0.00   0.00   0.00   0.00   0.00   0.00   0.00   0.06   0.00   0.00
+2  1  0     0.00   0.05   0.00   0.00   0.00   0.00   0.00   0.08   0.00   0.00   0.00  49.37   0.00  49.65   0.00   0.00   0.17   0.34   0.00   0.00   0.00   0.00   0.09   0.17   0.00   0.05   0.00   0.00   0.00   0.00   0.00   0.03
+2  0  1     0.00   0.05   0.00   0.00   0.00   0.00   0.00   0.08   0.00   0.00   0.00  49.38   0.00  49.64   0.00   0.00   0.17   0.34   0.00   0.00   0.00   0.00   0.09   0.17   0.00   0.05   0.00   0.00   0.00   0.00   0.00   0.03
+2  1  1     0.00   0.00   0.00   0.00   0.00   0.10   0.00   0.00   0.00   0.00   0.00   0.00   0.00   0.00   0.00  98.77   0.00   0.00   0.00   0.15   0.89   0.00   0.00   0.00   0.00   0.00   0.00   0.10   0.00   0.00   0.00   0.00
-3  0  0     0.00   0.00   0.00   0.00   0.00   0.01   0.00   0.00   0.00   0.00   0.68   0.36   0.00   0.00   0.00   0.00  98.57   0.02   0.00   0.00   0.00   0.00   0.00   0.00   0.00   0.00   0.28   0.08   0.00   0.00   0.00   0.00
-3  1  0     0.00   0.00   0.00   0.00   0.00   0.00   0.00   0.01   0.17   0.09   0.00   0.00   0.00   0.00   0.34   0.18   0.00   0.00  27.75  21.48  27.76  21.48   0.00   0.00   0.43   0.13   0.00   0.00   0.00   0.00   0.14   0.04
-3  0  1     0.00   0.00   0.00   0.00   0.00   0.00   0.00   0.01   0.17   0.09   0.00   0.00   0.00   0.00   0.34   0.18   0.00   0.00  27.61  21.60  27.92  21.35   0.00   0.00   0.43   0.13   0.00   0.00   0.00   0.00   0.14   0.04
-3  1  1     0.00   0.00   0.00   0.01   0.00   0.00   0.00   0.00   0.00   0.00   0.00   0.00   0.33   0.18   0.00   0.00   0.00   0.00   0.00   0.00   0.00   0.00  98.34   0.01   0.00   0.00   0.00   0.00   0.86   0.25   0.00   0.00
+3  0  0     0.00   0.00   0.00   0.00   0.01   0.00   0.00   0.00   0.00   0.00   0.36   0.68   0.00   0.00   0.00   0.00   0.02  98.57   0.00   0.00   0.00   0.00   0.00   0.00   0.00   0.00   0.08   0.28   0.00   0.00   0.00   0.00
+3  1  0     0.00   0.00   0.00   0.00   0.00   0.00   0.01   0.00   0.09   0.17   0.00   0.00   0.00   0.00   0.18   0.34   0.00   0.00  21.48  27.75  21.48  27.76   0.00   0.00   0.13   0.43   0.00   0.00   0.00   0.00   0.04   0.14
+3  0  1     0.00   0.00   0.00   0.00   0.00   0.00   0.01   0.00   0.09   0.17   0.00   0.00   0.00   0.00   0.18   0.34   0.00   0.00  21.60  27.61  21.35  27.92   0.00   0.00   0.13   0.43   0.00   0.00   0.00   0.00   0.04   0.14
+3  1  1     0.00   0.00   0.01   0.00   0.00   0.00   0.00   0.00   0.00   0.00   0.00   0.00   0.18   0.33   0.00   0.00   0.00   0.00   0.00   0.00   0.00   0.00   0.01  98.34   0.00   0.00   0.00   0.00   0.25   0.86   0.00   0.00
-4  0  0     0.00   0.00   0.00   0.00   0.00   0.00   0.00   0.00   0.00   0.00   0.00   0.00   0.09   0.00   0.00   0.00   0.00   0.00   0.89   0.00   0.00   0.23   0.01   0.00  98.77   0.00   0.00   0.00   0.00   0.00   0.00   0.00
-4  1  0     0.00   0.00   0.00   0.00   0.00   0.00   0.00   0.00   0.03   0.00   0.00   0.00   0.00   0.00   0.05   0.00   0.14   0.04   0.00   0.00   0.00   0.00   0.43   0.13   0.00   0.00  49.83   0.00  49.35   0.00   0.00   0.00
-4  0  1     0.00   0.00   0.00   0.00   0.00   0.00   0.00   0.00   0.03   0.00   0.00   0.00   0.00   0.00   0.05   0.00   0.14   0.04   0.00   0.00   0.00   0.00   0.43   0.13   0.00   0.00  49.71   0.00  49.46   0.00   0.00   0.00
-4  1  1     0.00   0.00   0.00   0.00   0.00   0.00   0.00   0.00   0.00   0.00   0.06   0.00   0.00   0.00   0.00   0.00   0.00   0.00   0.00   0.07   0.29   0.00   0.00   0.00   0.00   0.00   0.00   0.00   0.00   0.00  99.57   0.00
+4  0  0     0.00   0.00   0.00   0.00   0.00   0.00   0.00   0.00   0.00   0.00   0.00   0.00   0.00   0.09   0.00   0.00   0.00   0.00   0.00   0.89   0.23   0.00   0.00   0.01   0.00  98.77   0.00   0.00   0.00   0.00   0.00   0.00
+4  1  0     0.00   0.00   0.00   0.00   0.00   0.00   0.00   0.00   0.00   0.03   0.00   0.00   0.00   0.00   0.00   0.05   0.04   0.14   0.00   0.00   0.00   0.00   0.13   0.43   0.00   0.00   0.00  49.83   0.00  49.35   0.00   0.00
+4  0  1     0.00   0.00   0.00   0.00   0.00   0.00   0.00   0.00   0.00   0.03   0.00   0.00   0.00   0.00   0.00   0.05   0.04   0.14   0.00   0.00   0.00   0.00   0.13   0.43   0.00   0.00   0.00  49.71   0.00  49.46   0.00   0.00
+4  1  1     0.00   0.00   0.00   0.00   0.00   0.00   0.00   0.00   0.00   0.00   0.00   0.06   0.00   0.00   0.00   0.00   0.00   0.00   0.07   0.00   0.00   0.29   0.00   0.00   0.00   0.00   0.00   0.00   0.00   0.00   0.00  99.57

